
{ "events" : [
    {
        "event_id": "15",
        "event_name": "Technology Expo 2015",
        "event_thumbnail": "http://cards.komiapp.com/konica/assets/event/797247c26315b77492f6f53a66f8e125.png",
        "skip_interest": "NO"
    },
    {
        "event_id": "16",
        "event_name": "Aviation Festival Asia",
        "event_thumbnail": "http://cards.komiapp.com/konica/assets/event/e30f132003c573d508e6b21d350cd76a.png",
        "skip_interest": "NO"
    },
    {
        "event_id": "17",
        "event_name": "Terrapinn Expo 2015",
        "event_thumbnail": "http://cards.komiapp.com/konica/assets/event/e30f132003c573d508e6b21d350cd76a.png",
        "skip_interest": "NO"
    },
    {
        "event_id": "18",
        "event_name": "Thaifex World of Food Asia 2015",
        "event_thumbnail": "http://cards.komiapp.com/konica/assets/event/e30f132003c573d508e6b21d350cd76a.png",
        "skip_interest": "NO"
    }
], 

"booths" : [
    {
        "booth_id": "5",
        "booth_name": "booth name one",
        "booth_desc": "booth description one",
        "booth_thumbnail": "http://cards.komiapp.com/konica/assets/booth_thumbnail/e213fbf387cec493a5984d0a64ad9ebe.jpg"
    }
,

    {
        "booth_id": "10",
        "booth_name": "booth name two",
        "booth_desc": "booth description one",
        "booth_thumbnail": "http://cards.komiapp.com/konica/assets/booth_thumbnail/e213fbf387cec493a5984d0a64ad9ebe.jpg"
    }
,
    {
        "booth_id": "15",
        "booth_name": "booth name three",
        "booth_desc": "booth description one",
        "booth_thumbnail": "http://cards.komiapp.com/konica/assets/booth_thumbnail/e213fbf387cec493a5984d0a64ad9ebe.jpg"
    }
,

    {
        "booth_id": "101",
        "booth_name": "booth name two",
        "booth_desc": "booth description one",
        "booth_thumbnail": "http://cards.komiapp.com/konica/assets/booth_thumbnail/e213fbf387cec493a5984d0a64ad9ebe.jpg"
    }
,
    {
        "booth_id": "151",
        "booth_name": "booth name three",
        "booth_desc": "booth description one",
        "booth_thumbnail": "http://cards.komiapp.com/konica/assets/booth_thumbnail/e213fbf387cec493a5984d0a64ad9ebe.jpg"
    }
,

    {
        "booth_id": "1022",
        "booth_name": "booth name two",
        "booth_desc": "booth description one",
        "booth_thumbnail": "http://cards.komiapp.com/konica/assets/booth_thumbnail/e213fbf387cec493a5984d0a64ad9ebe.jpg"
    }
,
    {
        "booth_id": "1533",
        "booth_name": "booth name three",
        "booth_desc": "booth description one",
        "booth_thumbnail": "http://cards.komiapp.com/konica/assets/booth_thumbnail/e213fbf387cec493a5984d0a64ad9ebe.jpg"
    }        
],
 "login" : [
    {
        "attendance_id": "1",
        "attendance_no": "PA01969172",
        "attendance_type": "ORGANISER",
        "contact_email": "jaimie.featherstone@terrapinn.com",
        "first_name": "Jaimie",
        "last_name": "Featherstone",
        "contact_job_title": "Business Systems Director",
        "company": "Terrapinn Holdings Ltd",
        "avatar": "http://cards.komiapp.com/konica/assets/people.png",
        "enable_networking": "1",
        "error_code": 0,
  "token":"d0cab1db2"
    }
] ,

"attendee" : [
    {
        "attendee_id": "10",
        "attendee_first_name": "Andy",
        "attendee_last_name": "Muniandy",
        "attendee_avatar": "http://cards.komiapp.com/konica/assets/people.png",
        "attendee_company": "AL MIDAS INTERNATIONAL GROUP",
        "attendee_contact_mailing_country": "Malaysia"
    },
    {
        "attendee_id": "1",
        "attendee_first_name": "Jaimie",
        "attendee_last_name": "Featherstone",
        "attendee_avatar": "http://cards.komiapp.com/konica/assets/people.png",
        "attendee_company": "Terrapinn Holdings Ltd",
        "attendee_contact_mailing_country": "Australia"
    },
    {
        "attendee_id": "11",
        "attendee_first_name": "Jaimie",
        "attendee_last_name": "Featherstone",
        "attendee_avatar": "http://cards.komiapp.com/konica/assets/people.png",
        "attendee_company": "Terrapinn Holdings Ltd",
        "attendee_contact_mailing_country": "Australia"
    },
    {
        "attendee_id": "21",
        "attendee_first_name": "Jaimie",
        "attendee_last_name": "Featherstone",
        "attendee_avatar": "http://cards.komiapp.com/konica/assets/people.png",
        "attendee_company": "Terrapinn Holdings Ltd",
        "attendee_contact_mailing_country": "Australia"
    }
],

"rec_booth" : [
    {
        "booth_id": "151",
        "booth_name": "booth name three",
        "booth_desc": "booth description one",
        "booth_thumbnail": "http://cards.komiapp.com/konica/assets/booth_thumbnail/e213fbf387cec493a5984d0a64ad9ebe.jpg"
    }
,

    {
        "booth_id": "1022",
        "booth_name": "booth name two",
        "booth_desc": "booth description one",
        "booth_thumbnail": "http://cards.komiapp.com/konica/assets/booth_thumbnail/e213fbf387cec493a5984d0a64ad9ebe.jpg"
    }
,
    {
        "booth_id": "1533",
        "booth_name": "booth name three",
        "booth_desc": "booth description one",
        "booth_thumbnail": "http://cards.komiapp.com/konica/assets/booth_thumbnail/e213fbf387cec493a5984d0a64ad9ebe.jpg"
    }        
],

"interest" : 
[
    "Cloud infrastructure",
    "Communication systems",
    "Design and interiors",
    "Digital signage",
    "Distribution platforms"
]
    

}

