
{ 

 "login" : 
    {
        "id": 1,
        "attendance_no": "PA01969172",
        "role": [   
                { "type": "speaker", 
                  "label": "Sponsor Speaker!@# "} ,
                { "type": "booth_rep", 
                  "label": "Booth Representative"} 
            ],
        "email": "jaimie.featherstone@terrapinn.com",
        "first_name": "Jaimie",
        "last_name": "Featherstone",
        "job_title": "Business Systems Director",
        "company": "Terrapinn Holdings Ltd",
        "avatar": "http://cards.komiapp.com/konica/assets/people.png",
        "enable_networking": true,
        "sessionid":"d0cab1db2"
    }
 ,

    "events" : [
    {
        "id": 15,
        "name": "Technology Expo 2015",
        "description": "Lorem Ipsum Dolor Sit Amet Haha Hehe",
        "thumbnail": "http://cards.komiapp.com/konica/assets/event/797247c26315b77492f6f53a66f8e125.png",
        "skip_interest": false
    },
    {
        "id": 16,
        "name": "Aviation Festival Asia",
        "description": "Lorem Ipsum Dolor Sit Amet Haha Hehe",        
        "thumbnail": "http://cards.komiapp.com/konica/assets/event/e30f132003c573d508e6b21d350cd76a.png",
        "skip_interest": false
    },
    {
        "id": 17,
        "name": "Terrapinn Expo 2015",
        "description": "Lorem Ipsum Dolor Sit Amet Haha Hehe",
        "thumbnail": "http://cards.komiapp.com/konica/assets/event/e30f132003c573d508e6b21d350cd76a.png",
        "skip_interest": false
    },
    {
        "id": 18,
        "name": "Thaifex World of Food Asia 2015",
        "description": "Lorem Ipsum Dolor Sit Amet Haha Hehe",        
        "thumbnail": "http://cards.komiapp.com/konica/assets/event/e30f132003c573d508e6b21d350cd76a.png",
        "skip_interest": false
    }
], 

"booths" : [
    {
        "id": 5,
        "name": "booth name one",
        "desc": "booth description one",
        "thumbnail": "http://cards.komiapp.com/konica/assets/booth_thumbnail/e213fbf387cec493a5984d0a64ad9ebe.jpg"
    }
,

    {
        "id": 10,
        "name": "booth name two",
        "desc": "booth description one",
        "thumbnail": "http://cards.komiapp.com/konica/assets/booth_thumbnail/e213fbf387cec493a5984d0a64ad9ebe.jpg"
    }
,
    {
        "id": 15,
        "name": "booth name three",
        "desc": "booth description one",
        "thumbnail": "http://cards.komiapp.com/konica/assets/booth_thumbnail/e213fbf387cec493a5984d0a64ad9ebe.jpg"
    }
,

    {
        "id": 101,
        "name": "booth name two",
        "desc": "booth description one",
        "thumbnail": "http://cards.komiapp.com/konica/assets/booth_thumbnail/e213fbf387cec493a5984d0a64ad9ebe.jpg"
    }
,
    {
        "id": 151,
        "name": "booth name three",
        "desc": "booth description one",
        "thumbnail": "http://cards.komiapp.com/konica/assets/booth_thumbnail/e213fbf387cec493a5984d0a64ad9ebe.jpg"
    }
,

    {
        "id": 1022,
        "name": "booth name two",
        "desc": "booth description one",
        "thumbnail": "http://cards.komiapp.com/konica/assets/booth_thumbnail/e213fbf387cec493a5984d0a64ad9ebe.jpg"
    }
,
    {
        "id": 1533,
        "name": "booth name three",
        "desc": "booth description one",
        "thumbnail": "http://cards.komiapp.com/konica/assets/booth_thumbnail/e213fbf387cec493a5984d0a64ad9ebe.jpg"
    }        
],


"attendee" : [
    {
        "id": 10,
        "first_name": "Andy",
        "last_name": "Muniandy",
        "avatar": "http://cards.komiapp.com/konica/assets/people.png",
        "company": "AL MIDAS INTERNATIONAL GROUP",
        "country": "Malaysia"
    },
    {
        "id": 1,
        "first_name": "Jaimie",
        "last_name": "Featherstone",
        "avatar": "http://cards.komiapp.com/konica/assets/people.png",
        "company": "Terrapinn Holdings Ltd",
        "country": "Australia"
    },
    {
        "id": 11,
        "first_name": "Jaimie",
        "last_name": "Featherstone",
        "avatar": "http://cards.komiapp.com/konica/assets/people.png",
        "company": "Terrapinn Holdings Ltd",
        "country": "Australia"
    },
    {
        "id": 21,
        "first_name": "Jaimie",
        "last_name": "Featherstone",
        "avatar": "http://cards.komiapp.com/konica/assets/people.png",
        "company": "Terrapinn Holdings Ltd",
        "country": "Australia"
    }
],

"rec_booth" : [
    {
        "id": 151,
        "name": "booth name three",
        "desc": "booth description one",
        "thumbnail": "http://cards.komiapp.com/konica/assets/booth_thumbnail/e213fbf387cec493a5984d0a64ad9ebe.jpg"
    }
,

    {
        "id": 1022,
        "name": "booth name two",
        "desc": "booth description one",
        "thumbnail": "http://cards.komiapp.com/konica/assets/booth_thumbnail/e213fbf387cec493a5984d0a64ad9ebe.jpg"
    }
,
    {
        "id": 1533,
        "name": "booth name three",
        "desc": "booth description one",
        "thumbnail": "http://cards.komiapp.com/konica/assets/booth_thumbnail/e213fbf387cec493a5984d0a64ad9ebe.jpg"
    }        
],

"interest" : 
{
    "12": "Cloud infrastructure",
    "22": "Communication systems",
    "24": "Design and interiors",
    "56": "Digital signage",
    "123": "Distribution platforms"
}
    

}

